\relax 
\citation{yan2007graph}
\citation{dunteman1989principal}
\citation{kruskal1964multidimensional}
\citation{tenenbaum2000global}
\citation{belkin2001laplacian}
\citation{niyogi2004locality}
\citation{he2005neighborhood}
\citation{lachenbruch1975discriminant}
\citation{yan2007graph}
\citation{chen2005local}
\citation{venna2010information}
\citation{yan2007graph}
\@writefile{toc}{\contentsline {section}{\numberline {1} Introduction}{1}}
\newlabel{sec:intro}{{1}{1}}
\@writefile{toc}{\contentsline {section}{\numberline {2} Theory and Background}{1}}
\newlabel{sec:theory}{{2}{1}}
\@writefile{toc}{\contentsline {subsection}{\numberline {2.1} Graph Embedding}{1}}
\newlabel{sec:graphEmb}{{2.1}{1}}
\citation{wang2007trace}
\citation{jia2009trace}
\citation{harris1992algebraic}
\citation{ye2014distance}
\citation{ye2014distance}
\citation{sun2007further}
\citation{wang2006subspace}
\citation{ye2014distance}
\citation{ye2014distance}
\newlabel{eqn:graphemb_LE}{{1}{2}}
\newlabel{eqn:graphemb_LE_GEVD}{{2}{2}}
\newlabel{eqn:trratio}{{3}{2}}
\@writefile{toc}{\contentsline {subsection}{\numberline {2.2} Grassmannian Manifolds}{2}}
\newlabel{sec:grassmann}{{2.2}{2}}
\@writefile{toc}{\contentsline {section}{\numberline {3} Proposed Algorithm}{2}}
\newlabel{sec:algo}{{3}{2}}
\@writefile{toc}{\contentsline {subsection}{\numberline {3.1} Obtaining Multiple Incoherent Subspaces}{2}}
\newlabel{sec:incoh_subspace_comp}{{3.1}{2}}
\newlabel{eqn:dist_j1_i2}{{4}{2}}
\newlabel{eqn:graphemb_LE_incoh}{{5}{2}}
\newlabel{eqn:graphemb_LE_GEVD_1}{{6}{2}}
\@writefile{lof}{\contentsline {figure}{\numberline {1}{\ignorespaces Unsupervised Graph Embedding: (a)-(d) Mean precision - Mean Recall curves for different datasets; (e)-(f) $2$-D embeddings for the UCI ecoli datasets obtained using NPE and the proposed variant.}}{3}}
\newlabel{Fig:unsup}{{1}{3}}
\@writefile{toc}{\contentsline {subsection}{\numberline {3.2} Grassmannian Averaging}{3}}
\newlabel{sec:grass_avg}{{3.2}{3}}
\newlabel{eqn:grass_avg}{{7}{3}}
\@writefile{toc}{\contentsline {subsection}{\numberline {3.3} Supervised Embedding with Trace Ratio}{3}}
\newlabel{sec:sup_emb_tr}{{3.3}{3}}
\newlabel{eqn:trratio_incoh}{{8}{3}}
\@writefile{toc}{\contentsline {section}{\numberline {4} Results and Discussion}{3}}
\newlabel{sec:expt}{{4}{3}}
\@writefile{toc}{\contentsline {subsection}{\numberline {4.1} Unsupervised Graph Embedding}{3}}
\citation{roweis}
\citation{seawater}
\citation{uci}
\citation{face}
\citation{uci}
\citation{uci}
\citation{uci}
\citation{uci}
\citation{yale}
\citation{roweis}
\bibstyle{IEEE}
\bibdata{grassmannOpt}
\bibcite{yan2007graph}{1}
\@writefile{lof}{\contentsline {figure}{\numberline {2}{\ignorespaces Supervised Graph Embedding: Mean precision - Mean Recall curves for novel test data with respect to the training samples.}}{4}}
\newlabel{Fig:sup}{{2}{4}}
\@writefile{lot}{\contentsline {table}{\numberline {1}{\ignorespaces Classification Performance obtained using different supervised embedding techniques. In each case, the performance was evaluated using a k-NN classifier and the highest performance for each dataset is shown in bold. GM denotes our proposed approach.}}{4}}
\newlabel{Table:sup}{{1}{4}}
\@writefile{toc}{\contentsline {subsection}{\numberline {4.2} Supervised Graph Embedding}{4}}
\@writefile{toc}{\contentsline {section}{\numberline {5} Conclusions}{4}}
\bibcite{dunteman1989principal}{2}
\bibcite{kruskal1964multidimensional}{3}
\bibcite{tenenbaum2000global}{4}
\bibcite{belkin2001laplacian}{5}
\bibcite{niyogi2004locality}{6}
\bibcite{he2005neighborhood}{7}
\bibcite{lachenbruch1975discriminant}{8}
\bibcite{chen2005local}{9}
\bibcite{venna2010information}{10}
\bibcite{wang2007trace}{11}
\bibcite{jia2009trace}{12}
\bibcite{harris1992algebraic}{13}
\bibcite{ye2014distance}{14}
\bibcite{sun2007further}{15}
\bibcite{wang2006subspace}{16}
\bibcite{roweis}{17}
\bibcite{seawater}{18}
\bibcite{uci}{19}
\bibcite{face}{20}
\bibcite{yale}{21}
\@writefile{toc}{\contentsline {section}{\numberline {6} References}{5}}
