\relax 
\providecommand\hyper@newdestlabel[2]{}
\providecommand\HyperFirstAtBeginDocument{\AtBeginDocument}
\HyperFirstAtBeginDocument{\ifx\hyper@anchor\@undefined
\global\let\oldcontentsline\contentsline
\gdef\contentsline#1#2#3#4{\oldcontentsline{#1}{#2}{#3}}
\global\let\oldnewlabel\newlabel
\gdef\newlabel#1#2{\newlabelxx{#1}#2}
\gdef\newlabelxx#1#2#3#4#5#6{\oldnewlabel{#1}{{#2}{#3}}}
\AtEndDocument{\ifx\hyper@anchor\@undefined
\let\contentsline\oldcontentsline
\let\newlabel\oldnewlabel
\fi}
\fi}
\global\let\hyper@last\relax 
\gdef\HyperFirstAtBeginDocument#1{#1}
\providecommand\HyField@AuxAddToFields[1]{}
\providecommand\HyField@AuxAddToCoFields[2]{}
\@writefile{toc}{\contentsline {section}{\numberline {1}Introduction}{1}{section.1}}
\newlabel{eqn:scm}{{1}{1}{Introduction}{equation.1.1}{}}
\@writefile{toc}{\contentsline {section}{\numberline {2}Approach}{1}{section.2}}
\newlabel{eqn:qij}{{6}{2}{Approach}{equation.2.6}{}}
\newlabel{eqn:unsup_kl}{{7}{2}{Approach}{equation.2.7}{}}
\newlabel{eqn:sup_kl}{{8}{2}{Approach}{equation.2.8}{}}
\@writefile{toc}{\contentsline {subsection}{\numberline {2.1}Ensuring the Multiple Metrics are Different}{2}{subsection.2.1}}
\newlabel{eqn:unsup_kl_dist_diff}{{9}{2}{Ensuring the Multiple Metrics are Different}{equation.2.9}{}}
