-0.0013322,-0.03394,-0.14286
0.12213,0.096167,-0.02037
0.11444,-0.10213,0.14142
0.078515,-0.091848,-0.085391
0.031194,0.10726,-0.12519
0.11189,-0.083144,0.14336
-0.056487,-0.070157,0.15747
0.10603,0.1042,0.0194
-0.055112,-0.0080068,0.063277
0.02078,0.036368,0.12081
0.043022,0.097733,0.14979
-0.18434,-0.042669,-0.11239
0.025145,-0.14496,-0.13218
0.10749,0.069,0.069518
0.02875,-0.095794,-0.072313
-0.16989,0.19398,0.14755
-0.17671,0.089733,0.15344
-0.037465,-0.1523,0.020691
-0.048488,0.16089,-0.050199
0.052898,0.03416,-0.10004
-0.19243,-0.11721,0.012339
0.15145,0.032426,-0.072661
0.26328,-0.05656,-0.00062826
-0.034035,-0.07386,0.072629
-0.01694,-0.030428,0.10626
0.067045,-0.16729,-0.075891
-0.14837,-0.10694,-0.090465
0.069345,0.095709,-0.03438
0.044782,0.16437,0.016895
0.093894,0.029222,-0.055773
-0.091497,-0.029422,0.069211
-0.11008,-0.1337,-0.040349
0.0031264,-0.11135,-0.042627
-0.072401,0.16546,0.07174
0.13662,0.06849,-0.11586
0.082361,0.041531,-0.0089091
0.09318,0.056355,-0.16258
-0.076431,0.010948,-0.14858
0.036113,0.040974,-0.15512
0.026149,-0.12883,-0.023915
-0.015817,-0.074543,-0.20644
0.068058,-0.0021364,0.11987
-0.0085998,-0.076797,0.0013875
0.068884,-0.22462,-0.042557
-0.049259,-0.1134,0.10232
-0.11165,-0.15296,-0.051144
-0.050436,0.12473,0.0078026
-0.040418,-0.01554,-0.017446
0.034258,-0.13624,0.01299
0.10103,0.1276,-0.049661
0.041805,-0.085911,0.14474
0.083538,0.10857,-0.071105
-0.075408,-0.14639,0.094607
-0.13369,0.12382,-0.015164
0.050163,0.04128,0.056192
0.086115,0.14401,-0.092798
0.10961,0.0046685,-0.10074
0.012535,0.13613,0.066631
0.17314,-0.13115,0.031342
0.077921,-0.089537,-0.089769
-0.030233,-0.014992,-0.095875
0.098792,-0.0035288,0.12949
-0.094948,-0.10865,-0.089104
-0.0033241,-0.10624,0.016723
0.013375,0.13744,0.14426
-0.04891,0.09142,-0.121
0.0090869,-0.082599,0.17263
0.044397,0.04926,0.018312
0.11954,-0.13216,0.079707
-0.02209,0.0451,-0.24318
-0.22832,0.11976,0.026609
-0.031117,0.11753,0.034888
0.072545,0.13556,-0.10965
0.12141,0.10315,0.046774
-0.0315,0.059392,-0.14354
-0.20461,-0.078135,0.0060346
-0.021,-0.13209,-0.067611
-0.099897,0.024824,0.064908
-0.023669,-0.052844,-0.040696
0.10153,0.11626,0.10138
-0.23646,-0.097509,0.018027
0.20392,-0.06573,0.023368
0.15027,-0.12667,-0.040547
-0.09444,0.03717,-0.074143
0.024337,0.083764,-0.0401
-0.042456,0.092989,0.014653
0.0078959,-0.089567,-0.16221
0.0014494,0.097055,-0.16314
-0.032862,0.09972,-0.11918
0.13529,-0.059829,0.093079
-0.17463,-0.0075656,0.18616
0.16457,-0.028841,-0.029763
-0.0083462,0.10458,-0.081053
-0.041191,-0.043664,0.06678
-0.14136,-0.041276,-0.21554
0.012532,0.036519,-0.1458
-0.050208,-0.10345,0.003166
0.12154,0.10094,0.18466
0.15367,-0.18257,0.036571
-0.013766,0.072345,-0.082932
